AGGREGATED OVER LAST 24 HOURS:
Per-Package Stats:
  * com.norappweb.flashinyday / u0a567:
      * com.norappweb.flashinyday / u0a567:
               TOTAL: 77% (12MB-21MB-37MB/11MB-20MB-36MB over 23)
                 Top: 77% (12MB-21MB-37MB/11MB-20MB-36MB over 23)
          (Last Act): 0,06%
            (Cached): 0,02%

Summary:
  * com.norappweb.flashinyday / u0a567:
           TOTAL: 77% (12MB-21MB-37MB/11MB-20MB-36MB over 23)
             Top: 77% (12MB-21MB-37MB/11MB-20MB-36MB over 23)
      (Last Act): 0,06%
        (Cached): 0,02%

Run time Stats:
  SOn /Norm: +34m49s455ms
      TOTAL: +34m49s455ms

          Start time: 2015-08-04 08:56:31
  Total elapsed time: +34m54s761ms (partial) libdvm.so chromeview

AGGREGATED OVER LAST 3 HOURS:
Per-Package Stats:
  * com.norappweb.flashinyday / u0a567:
      * com.norappweb.flashinyday / u0a567:
               TOTAL: 77% (12MB-21MB-37MB/11MB-20MB-36MB over 23)
                 Top: 77% (12MB-21MB-37MB/11MB-20MB-36MB over 23)
          (Last Act): 0,06%
            (Cached): 0,02%

Summary:
  * com.norappweb.flashinyday / u0a567:
           TOTAL: 77% (12MB-21MB-37MB/11MB-20MB-36MB over 23)
             Top: 77% (12MB-21MB-37MB/11MB-20MB-36MB over 23)
      (Last Act): 0,06%
        (Cached): 0,02%

Run time Stats:
  SOn /Norm: +34m49s668ms
      TOTAL: +34m49s668ms

          Start time: 2015-08-04 08:56:31
  Total elapsed time: +34m54s973ms (partial) libdvm.so chromeview

CURRENT STATS:
Per-Package Stats:
  * com.norappweb.flashinyday / u0a567:
      * com.norappweb.flashinyday / u0a567:
               TOTAL: 77% (12MB-21MB-37MB/11MB-20MB-36MB over 23)
                 Top: 77% (12MB-21MB-37MB/11MB-20MB-36MB over 23)
          (Last Act): 0,06%
            (Cached): 0,02%

Summary:
  * com.norappweb.flashinyday / u0a567:
           TOTAL: 77% (12MB-21MB-37MB/11MB-20MB-36MB over 23)
             Top: 77% (12MB-21MB-37MB/11MB-20MB-36MB over 23)
      (Last Act): 0,06%
        (Cached): 0,02%

Run time Stats:
  SOn /Norm: +34m49s455ms (running)
      TOTAL: +34m49s455ms

          Start time: 2015-08-04 08:56:31
  Total elapsed time: +34m55s270ms (partial) libdvm.so chromeview
